<?xml version="1.0" encoding="utf-8"?>
<!-- Generator: Adobe Illustrator 21.0.2, SVG Export Plug-In . SVG Version: 6.00 Build 0)  -->
<svg version="1.1" id="Layer_1" xmlns="http://www.w3.org/2000/svg" xmlns:xlink="http://www.w3.org/1999/xlink" x="0px" y="0px"
	 viewBox="0 0 44.8 36.2" style="enable-background:new 0 0 44.8 36.2;" xml:space="preserve">
<style type="text/css">
	.st0{fill:none;stroke:#EFC94C;stroke-width:1.3;stroke-miterlimit:10;}
	.st1{fill:none;stroke:#F6F6F6;stroke-width:1.3;stroke-miterlimit:10;}
	.st2{fill:none;stroke:#F6F6F6;stroke-width:1.5865;stroke-miterlimit:10;}
	.st3{fill:#F6F6F6;}
	.st4{fill:none;stroke:#0C0D0B;stroke-width:2.8989;stroke-miterlimit:10;}
	.st5{fill:none;stroke:#0C0D0B;stroke-width:3;stroke-miterlimit:10;}
	.st6{fill:none;stroke:#0D0C08;stroke-width:1.756;stroke-miterlimit:10;}
	.st7{fill:none;stroke:#0D0C08;stroke-width:1.655;stroke-miterlimit:10;}
	.st8{fill:#0D0C08;}
	.st9{fill:none;stroke:#0D0C08;stroke-width:1.6059;stroke-miterlimit:10;}
	.st10{fill:none;stroke:#0D0C08;stroke-width:3.0429;stroke-miterlimit:10;}
	.st11{fill:none;stroke:#0D0C08;stroke-width:1.6;stroke-miterlimit:10;}
	.st12{fill:none;stroke:#0D0C08;stroke-width:2.6054;stroke-miterlimit:10;}
	.st13{fill:#EFC94C;}
	.st14{fill:none;stroke:#EFC94C;stroke-miterlimit:10;}
	.st15{fill:#EB7842;}
	.st16{fill:none;stroke:#EB7842;stroke-miterlimit:10;}
	.st17{fill:#00B7D9;}
	.st18{fill:none;stroke:#00B7D9;stroke-miterlimit:10;}
	.st19{fill:none;stroke:#00B7D9;stroke-width:1.3;stroke-miterlimit:10;}
	.st20{fill:none;stroke:#EB7842;stroke-width:1.3;stroke-miterlimit:10;}
</style>
<rect x="16.2" y="15.7" class="st17" width="2" height="6.9"/>
<rect x="19.6" y="14.2" class="st17" width="2" height="8.5"/>
<rect x="23" y="16.8" class="st17" width="2" height="5.8"/>
<rect x="26.4" y="12.3" class="st17" width="2" height="10.3"/>
<polyline class="st18" points="14.5,13.4 14.5,23.9 30.3,23.9 "/>
</svg>
