<?xml version="1.0" encoding="utf-8"?>
<!-- Generator: Adobe Illustrator 21.0.2, SVG Export Plug-In . SVG Version: 6.00 Build 0)  -->
<svg version="1.1" id="Layer_1" xmlns="http://www.w3.org/2000/svg" xmlns:xlink="http://www.w3.org/1999/xlink" x="0px" y="0px"
	 viewBox="0 0 44.8 36.2" style="enable-background:new 0 0 44.8 36.2;" xml:space="preserve">
<style type="text/css">
	.st0{fill:none;stroke:#EFC94C;stroke-width:1.3;stroke-miterlimit:10;}
	.st1{fill:none;stroke:#F6F6F6;stroke-width:1.3;stroke-miterlimit:10;}
	.st2{fill:none;stroke:#F6F6F6;stroke-width:1.5865;stroke-miterlimit:10;}
	.st3{fill:#F6F6F6;}
	.st4{fill:none;stroke:#0C0D0B;stroke-width:2.8989;stroke-miterlimit:10;}
	.st5{fill:none;stroke:#0C0D0B;stroke-width:3;stroke-miterlimit:10;}
	.st6{fill:none;stroke:#0D0C08;stroke-width:1.756;stroke-miterlimit:10;}
	.st7{fill:none;stroke:#0D0C08;stroke-width:1.655;stroke-miterlimit:10;}
	.st8{fill:#0D0C08;}
	.st9{fill:none;stroke:#0D0C08;stroke-width:1.6059;stroke-miterlimit:10;}
	.st10{fill:none;stroke:#0D0C08;stroke-width:3.0429;stroke-miterlimit:10;}
	.st11{fill:none;stroke:#0D0C08;stroke-width:1.6;stroke-miterlimit:10;}
	.st12{fill:none;stroke:#0D0C08;stroke-width:2.6054;stroke-miterlimit:10;}
	.st13{fill:#EFC94C;}
	.st14{fill:none;stroke:#EFC94C;stroke-miterlimit:10;}
	.st15{fill:#EB7842;}
	.st16{fill:none;stroke:#EB7842;stroke-miterlimit:10;}
	.st17{fill:#00B7D9;}
	.st18{fill:none;stroke:#00B7D9;stroke-miterlimit:10;}
	.st19{fill:none;stroke:#00B7D9;stroke-width:1.3;stroke-miterlimit:10;}
	.st20{fill:none;stroke:#EB7842;stroke-width:1.3;stroke-miterlimit:10;}
</style>
<g>
	<path class="st19" d="M29.1,25.5c0,1.8-3.6,3.3-8,3.3s-8-1.5-8-3.3"/>
	<path class="st19" d="M23.1,10.4c3.5,0.4,6.1,1.6,6.1,3.2c0,1.8-3.6,3.3-8,3.3s-8-1.5-8-3.3c0-1.5,2.6-2.8,6.1-3.2"/>
	<line class="st19" x1="13.1" y1="25.5" x2="13.1" y2="13.6"/>
	<line class="st19" x1="29.1" y1="25.5" x2="29.1" y2="13.6"/>
	<path class="st19" d="M23.1,12.6c0,0.5-0.9,1-2,1s-2-0.4-2-1"/>
	<line class="st19" x1="19.2" y1="12.6" x2="19.2" y2="6.8"/>
	<line class="st19" x1="23.1" y1="12.6" x2="23.1" y2="6.8"/>
</g>
</svg>
